{"page":1,"total_results":20021,"total_pages":1002,"results":[{"original_name":"The Walking Dead","genre_ids":[18,10759,10765],"name":"The Walking Dead","popularity":210.393,"origin_country":["US"],"vote_count":3675,"first_air_date":"2010-10-31","backdrop_path":"\/xVzvD5BPAU4HpleFSo8QOdHkndo.jpg","original_language":"en","id":1402,"vote_average":7.3,"overview":"Sheriff's deputy Rick Grimes awakens from a coma to find a post-apocalyptic world dominated by flesh-eating zombies. He sets out to find his family and encounters many other survivors along the way.","poster_path":"\/yn7psGTZsHumHOkLUmYpyrIcA2G.jpg"},{"original_name":"The Flash","genre_ids":[18,10765],"name":"The Flash","popularity":193.679,"origin_country":["US"],"vote_count":2266,"first_air_date":"2014-10-07","backdrop_path":"\/mmxxEpTqVdwBlu5Pii7tbedBkPC.jpg","original_language":"en","id":60735,"vote_average":6.7,"overview":"After a particle accelerator causes a freak storm, CSI Investigator Barry Allen is struck by lightning and falls into a coma. Months later he awakens with the power of super speed, granting him the ability to move through Central City like an unseen guardian angel. Though initially excited by his newfound powers, Barry is shocked to discover he is not the only \"meta-human\" who was created in the wake of the accelerator explosion -- and not everyone is using their new powers for good. Barry partners with S.T.A.R. Labs and dedicates his life to protect the innocent. For now, only a few close friends and associates know that Barry is literally the fastest man alive, but it won't be long before the world learns what Barry Allen has become...The Flash.","poster_path":"\/lUFK7ElGCk9kVEryDJHICeNdmd1.jpg"},{"original_name":"The Big Bang Theory","genre_ids":[35],"name":"The Big Bang Theory","popularity":145.972,"origin_country":["US"],"vote_count":3286,"first_air_date":"2007-09-24","backdrop_path":"\/nGsNruW3W27V6r4gkyc3iiEGsKR.jpg","original_language":"en","id":1418,"vote_average":6.8,"overview":"The Big Bang Theory is centered on five characters living in Pasadena, California: roommates Leonard Hofstadter and Sheldon Cooper; Penny, a waitress and aspiring actress who lives across the hall; and Leonard and Sheldon's equally geeky and socially awkward friends and co-workers, mechanical engineer Howard Wolowitz and astrophysicist Raj Koothrappali. The geekiness and intellect of the four guys is contrasted for comic effect with Penny's social skills and common sense.","poster_path":"\/ooBGRQBdbGzBxAVfExiO8r7kloA.jpg"},{"original_name":"Supernatural","genre_ids":[18,9648,10765],"name":"Supernatural","popularity":112.66,"origin_country":["US"],"vote_count":1565,"first_air_date":"2005-09-13","backdrop_path":"\/koMUCyGWNtH5LXYbGqjsUwvgtsT.jpg","original_language":"en","id":1622,"vote_average":7.2,"overview":"When they were boys, Sam and Dean Winchester lost their mother to a mysterious and demonic supernatural force. Subsequently, their father raised them to be soldiers. He taught them about the paranormal evil that lives in the dark corners and on the back roads of America ... and he taught them how to kill it. Now, the Winchester brothers crisscross the country in their '67 Chevy Impala, battling every kind of supernatural threat they encounter along the way. ","poster_path":"\/pui1V389cQft0BVFu9pbsYLEW1Q.jpg"},{"original_name":"Doctor Who","genre_ids":[18,10759,10765],"name":"Doctor Who","popularity":92.997,"origin_country":["GB"],"vote_count":1242,"first_air_date":"2005-03-26","backdrop_path":"\/nfH8SZJVOxcBlFaqqtoqS5hHizG.jpg","original_language":"en","id":57243,"vote_average":7,"overview":"The Doctor is a Time Lord: a 900 year old alien with 2 hearts, part of a gifted civilization who mastered time travel. The Doctor saves planets for a living – more of a hobby actually, and the Doctor's very, very good at it.","poster_path":"\/3EcYZhBMAvVw4czcDLg9Sd0FuzQ.jpg"},{"original_name":"Riverdale","genre_ids":[18,9648],"name":"Riverdale","popularity":92.273,"origin_country":["US"],"vote_count":321,"first_air_date":"2017-01-26","backdrop_path":"\/2IUpoKSP64r6rp2vBo0Fdk8a1UU.jpg","original_language":"en","id":69050,"vote_average":7.2,"overview":"Set in the present, the series offers a bold, subversive take on Archie, Betty, Veronica and their friends, exploring the surreality of small-town life, the darkness and weirdness bubbling beneath Riverdale’s wholesome facade.","poster_path":"\/1TsbOTztAJtzTRXAhoLsX9a83XX.jpg"},{"original_name":"American Horror Story","genre_ids":[18,9648,10765],"name":"American Horror Story","popularity":87.923,"origin_country":["US"],"vote_count":878,"first_air_date":"2011-10-05","backdrop_path":"\/ilKE2RPD8tkynAOHefX9ZclG1yq.jpg","original_language":"en","id":1413,"vote_average":7,"overview":"An anthology horror drama series centering on different characters and locations, including a house with a murderous past, an asylum, a witch coven, a freak show, a hotel, a farmhouse in Roanoke and a cult.","poster_path":"\/zheiOgPKDMvYjrCSrMLv8FSNJn4.jpg"},{"original_name":"The Simpsons","genre_ids":[16,35],"name":"The Simpsons","popularity":83.79,"origin_country":["US"],"vote_count":1702,"first_air_date":"1989-12-17","backdrop_path":"\/lnnrirKFGwFW18GiH3AmuYy40cz.jpg","original_language":"en","id":456,"vote_average":7.1,"overview":"Set in Springfield, the average American town, the show focuses on the antics and everyday adventures of the Simpson family; Homer, Marge, Bart, Lisa and Maggie, as well as a virtual cast of thousands. Since the beginning, the series has been a pop culture icon, attracting hundreds of celebrities to guest star. The show has also made name for itself in its fearless satirical take on politics, media and American life in general.","poster_path":"\/yTZQkSsxUFJZJe67IenRM0AEklc.jpg"},{"original_name":"Marvel's Iron Fist","genre_ids":[80,18,10759,10765],"name":"Marvel's Iron Fist","popularity":81.463,"origin_country":["US"],"vote_count":678,"first_air_date":"2017-03-17","backdrop_path":"\/xHCfWGlxwbtMeeOnTvxUCZRGnkk.jpg","original_language":"en","id":62127,"vote_average":6.1,"overview":"Danny Rand resurfaces 15 years after being presumed dead. Now, with the power of the Iron Fist, he seeks to reclaim his past and fulfill his destiny.","poster_path":"\/nv4nLXbDhcISPP8C1mgaxKU50KO.jpg"},{"original_name":"Grey's Anatomy","genre_ids":[18],"name":"Grey's Anatomy","popularity":77.746,"origin_country":["US"],"vote_count":787,"first_air_date":"2005-03-27","backdrop_path":"\/y6JABtgWMVYPx84Rvy7tROU5aNH.jpg","original_language":"en","id":1416,"vote_average":6.3,"overview":"Follows the personal and professional lives of a group of doctors at Seattle’s Grey Sloan Memorial Hospital.","poster_path":"\/mgOZSS2FFIGtfVeac1buBw3Cx5w.jpg"},{"original_name":"Law & Order: Special Victims Unit","genre_ids":[80,18],"name":"Law & Order: Special Victims Unit","popularity":71.317,"origin_country":["US"],"vote_count":526,"first_air_date":"1999-09-20","backdrop_path":"\/kOvt2BOOwSAQCT8yo3pM3X2GXjh.jpg","original_language":"en","id":2734,"vote_average":6.2,"overview":"In the criminal justice system, sexually-based offenses are considered especially heinous. In New York City, the dedicated detectives who investigate these vicious felonies are members of an elite squad known as the Special Victims Unit. These are their stories.","poster_path":"\/ydSvHgksuB8Ix0V05QEZBKrnIcg.jpg"},{"original_name":"Black Lightning","genre_ids":[18,10759,10765],"name":"Black Lightning","popularity":66.73,"origin_country":["US"],"vote_count":121,"first_air_date":"2018-01-16","backdrop_path":"\/h3wTKlnA2ABrkQRm3WNk3mOaTjO.jpg","original_language":"en","id":71663,"vote_average":6.1,"overview":"Jefferson Pierce is a man wrestling with a secret. As the father of two daughters and principal of a charter high school that also serves as a safe haven for young people in a New Orleans neighborhood overrun by gang violence, he is a hero to his community.","poster_path":"\/95nmr01SjhjCs0Aa3ZWEfSpZ9oX.jpg"},{"original_name":"Blindspot","genre_ids":[28,80,18],"name":"Blindspot","popularity":65.559,"origin_country":["US"],"vote_count":506,"first_air_date":"2015-09-21","backdrop_path":"\/ioBqBeEN5QmNwKp37kf6ohkmJKy.jpg","original_language":"en","id":62710,"vote_average":6.4,"overview":"A vast international plot explodes when a beautiful Jane Doe is discovered naked in Times Square, completely covered in mysterious, intricate tattoos with no memory of who she is or how she got there. But there's one tattoo that is impossible to miss: the name of FBI agent Kurt Weller, emblazoned across her back. \"Jane,\" Agent Weller and the rest of the FBI quickly realize that each mark on her body is a crime to solve, leading them closer to the truth about her identity and the mysteries to be revealed.","poster_path":"\/fx3SId5m3j77BOM4YJ0veJwsraq.jpg"},{"original_name":"NCIS","genre_ids":[80,18,10759],"name":"NCIS","popularity":58.84,"origin_country":["US"],"vote_count":627,"first_air_date":"2003-09-23","backdrop_path":"\/nymeWHYQ1JaWP2wyNW5a5WHiDCd.jpg","original_language":"en","id":4614,"vote_average":6.8,"overview":"From murder and espionage to terrorism and stolen submarines, a team of special agents investigates any crime that has a shred of evidence connected to Navy and Marine Corps personnel, regardless of rank or position.","poster_path":"\/eoj15m14Zpf2bUWXqNIs7itZK9w.jpg"},{"original_name":"Family Guy","genre_ids":[16,35],"name":"Family Guy","popularity":58.568,"origin_country":["US"],"vote_count":1258,"first_air_date":"1999-01-31","backdrop_path":"\/pH38r4TWTqq7Mcs6XAlwgzNUeJe.jpg","original_language":"en","id":1434,"vote_average":6.5,"overview":"Sick, twisted, politically incorrect and Freakin' Sweet animated series featuring the adventures of the dysfunctional Griffin family. Bumbling Peter and long-suffering Lois have three kids. Stewie (a brilliant but sadistic baby bent on killing his mother and taking over the world), Meg (the oldest, and is the most unpopular girl in town) and Chris (the middle kid, he's not very bright but has a passion for movies). The final member of the family is Brian - a talking dog and much more than a pet, he keeps Stewie in check whilst sipping Martinis and sorting through his own life issues.","poster_path":"\/gBGUL1UTUNmdRQT8gA1LUV4yg39.jpg"},{"original_name":"South Park","genre_ids":[16,35],"name":"South Park","popularity":58.383,"origin_country":["US"],"vote_count":930,"first_air_date":"1997-08-13","backdrop_path":"\/mSDKNVvDfitFE6Fb6fSSl5DQmgS.jpg","original_language":"en","id":2190,"vote_average":7.8,"overview":"Follows the misadventures of four irreverent grade-schoolers in the quiet, dysfunctional town of South Park, Colorado.","poster_path":"\/v9zc0cZpy5aPSfAy6Tgb6I1zWgV.jpg"},{"original_name":"Van Helsing","genre_ids":[10759,10765],"name":"Van Helsing","popularity":54.361,"origin_country":["US"],"vote_count":166,"first_air_date":"2016-09-23","backdrop_path":"\/871Z6KlcOZ7TesNsuqOV5Zk2HRC.jpg","original_language":"en","id":65820,"vote_average":5.7,"overview":"Vanessa Helsing, the daughter of famous vampire hunter and Dracula nemesis Abraham Van Helsing is resurrected five years in the future to find out that vampires have taken over the world and that she possesses unique power over them. She is humanity’s last hope to lead an offensive to take back what has been lost.","poster_path":"\/j4tRuhwfAOBKCoZeY6PDMJHzdW9.jpg"},{"original_name":"Game of Thrones","id":1399,"name":"Game of Thrones","popularity":53.886,"vote_count":4904,"vote_average":8.2,"first_air_date":"2011-04-17","poster_path":"\/gwPSoYUHAKmdyVywgLpKKA4BjRr.jpg","genre_ids":[18,10759,10765],"original_language":"en","backdrop_path":"\/gX8SYlnL9ZznfZwEH4KJUePBFUM.jpg","overview":"Seven noble families fight for control of the mythical land of Westeros. Friction between the houses leads to full-scale war. All while a very ancient evil awakens in the farthest north. Amidst the war, a neglected military order of misfits, the Night's Watch, is all that stands between the realms of men and icy horrors beyond.","origin_country":["US"]},{"original_name":"Marvel's Agents of S.H.I.E.L.D.","genre_ids":[18,10759,10765],"name":"Marvel's Agents of S.H.I.E.L.D.","popularity":53.442,"origin_country":["US"],"vote_count":1167,"first_air_date":"2013-09-24","backdrop_path":"\/qtr5i6hOm6oVzTYl3jOQAYP3oc7.jpg","original_language":"en","id":1403,"vote_average":6.7,"overview":"Agent Phil Coulson of S.H.I.E.L.D. (Strategic Homeland Intervention, Enforcement and Logistics Division) puts together a team of agents to investigate the new, the strange and the unknown around the globe, protecting the ordinary from the extraordinary.","poster_path":"\/xjm6uVktPuKXNILwjLXwVG5d5BU.jpg"},{"original_name":"Arrow","id":1412,"name":"Arrow","popularity":51.889,"vote_count":1955,"vote_average":6,"first_air_date":"2012-10-10","poster_path":"\/mo0FP1GxOFZT4UDde7RFDz5APXF.jpg","genre_ids":[80,18,9648,10759],"original_language":"en","backdrop_path":"\/dKxkwAJfGuznW8Hu0mhaDJtna0n.jpg","overview":"Spoiled billionaire playboy Oliver Queen is missing and presumed dead when his yacht is lost at sea. He returns five years later a changed man, determined to clean up the city as a hooded vigilante armed with a bow.","origin_country":["US"]}]}
